<?xml version="1.0" encoding="UTF-8" standalone="no"?>
<!-- Created with Inkscape (http://www.inkscape.org/) -->

<svg
   xmlns:dc="http://purl.org/dc/elements/1.1/"
   xmlns:cc="http://creativecommons.org/ns#"
   xmlns:rdf="http://www.w3.org/1999/02/22-rdf-syntax-ns#"
   xmlns:svg="http://www.w3.org/2000/svg"
   xmlns="http://www.w3.org/2000/svg"
   xmlns:sodipodi="http://sodipodi.sourceforge.net/DTD/sodipodi-0.dtd"
   xmlns:inkscape="http://www.inkscape.org/namespaces/inkscape"
   width="131.06219mm"
   height="79.781929mm"
   viewBox="0 0 131.06219 79.781929"
   version="1.1"
   id="svg1076"
   inkscape:version="0.92.3 (2405546, 2018-03-11)"
   sodipodi:docname="Sapura Energy Logo.svg">
  <defs
     id="defs1070">
    <clipPath
       clipPathUnits="userSpaceOnUse"
       id="clipPath102">
      <path
         d="m 1078.609,509.927 c -7.051,0 -13.893,-1.381 -20.337,-4.107 v 0 c -6.222,-2.631 -11.809,-6.398 -16.605,-11.194 v 0 c -4.797,-4.797 -8.563,-10.384 -11.195,-16.605 v 0 c -0.96,-2.273 -1.745,-4.597 -2.371,-6.96 v 0 c -0.737,-0.315 -1.471,-0.632 -2.186,-0.961 v 0 c -14.869,-6.862 -23.186,-16.315 -23.509,-26.674 v 0 c -5.665,-1.368 -10.356,-2.884 -13.988,-4.531 v 0 c -2.908,-1.318 -5.108,-2.697 -6.727,-4.213 v 0 c -2.707,-2.537 -3.275,-5.081 -3.275,-6.768 v 0 c 0,-1.687 0.568,-4.231 3.275,-6.768 v 0 c 1.619,-1.517 3.819,-2.895 6.727,-4.214 v 0 c 5.133,-2.327 12.341,-4.395 21.477,-6.148 v 0 c 17.407,-3.337 40.118,-5.252 64.535,-5.445 v 0 -68.618 h 4.249 c 10.223,0 19.833,4.171 27.062,11.399 v 0 c 4.701,4.702 8.018,10.51 9.77,16.74 v 0 c 0.35,0.153 0.706,0.35 1.049,0.508 v 0 c 10.733,4.954 16.836,11.851 17.342,19.466 v 0 c 3.693,0.917 6.797,1.937 9.243,3.032 v 0 c 5.182,2.315 7.809,5.271 7.809,8.776 v 0 c 0,3.503 -2.627,6.46 -7.809,8.776 v 0 c -3.728,1.665 -8.941,3.142 -15.515,4.383 v 0 c -12.13,2.293 -28.021,3.63 -44.807,3.816 v 0 96.31 z m -31.005,-21.232 c 7.287,7.288 16.906,11.695 26.826,12.649 v 0 -21.184 c -12.972,-0.334 -25.44,-2.227 -36.262,-5.481 v 0 c 2.173,5.173 5.348,9.929 9.436,14.016 m -12.852,-31.012 c 0,2.448 0.229,4.863 0.62,7.232 v 0 c 11.13,4.083 24.56,6.472 39.058,6.86 v 0 -21.287 c -13.735,-0.111 -26.748,-0.761 -38.713,-1.896 v 0 c -0.62,2.958 -0.965,5.999 -0.965,9.091 m -19.419,-4.785 c 2.66,2.902 6.486,5.675 11.148,8.124 v 0 c -0.069,-1.108 -0.116,-2.219 -0.116,-3.339 v 0 c 0,-3.385 0.326,-6.72 0.959,-9.987 v 0 c -5.798,-0.696 -11.252,-1.513 -16.277,-2.447 v 0 c 0.557,2.579 1.989,5.143 4.286,7.649 m 32.294,-26.227 c -4.013,4.014 -7.129,8.673 -9.301,13.739 v 0 c 11.227,1.008 23.132,1.588 36.104,1.693 v 0 -28.075 c -9.92,0.964 -19.527,5.368 -26.803,12.643 m -18.198,-3.559 c -6.018,2.777 -10.893,6.092 -14.096,9.586 v 0 c -1.286,1.404 -2.286,2.826 -3.029,4.258 v 0 c 0.436,0.082 0.869,0.164 1.321,0.245 v 0 c 4.931,0.888 10.298,1.661 15.99,2.319 v 0 c 0.271,-0.729 0.553,-1.455 0.857,-2.174 v 0 c 2.632,-6.222 6.398,-11.809 11.195,-16.605 v 0 c 1.06,-1.06 2.165,-2.061 3.3,-3.019 v 0 c -5.641,1.434 -10.872,3.237 -15.538,5.39 m -15.804,-4.486 c -22.205,4 -26.199,8.462 -26.76,9.288 v 0 c 0.466,0.686 3.317,3.887 17.024,7.245 v 0 c 2.709,-6.772 9.042,-12.93 18.525,-17.931 v 0 c -3.052,0.431 -5.995,0.895 -8.789,1.398 m 69.198,-12.695 c 0,-10e-4 0.257,-0.004 0.366,-0.005 v 0 c 10.042,-1.569 18.428,-8.239 22.559,-17.321 v 0 c -7.222,-0.588 -14.532,-0.942 -22.925,-1.037 v 0 z m 22.918,-3.497 c -0.773,0.771 -1.578,1.499 -2.401,2.195 v 0 c 3.754,-0.584 7.239,-1.483 10.367,-2.925 v 0 c 5.389,-2.485 9.478,-6.762 11.63,-10.704 v 0 c -0.193,-0.033 -0.373,-0.067 -0.568,-0.099 v 0 c -3.265,-0.557 -6.782,-1.046 -10.483,-1.47 v 0 c -1.9,4.813 -4.777,9.234 -8.545,13.003 m 16.834,0.976 c 0.743,-0.114 1.475,-0.232 2.194,-0.354 v 0 c 13.093,-2.23 19.534,-5.029 19.534,-6.306 v 0 c 0,-0.992 -3.899,-2.625 -11.757,-4.349 v 0 c -1.753,4.037 -5.126,7.809 -9.971,11.009 m -5.626,-28.038 c 0,2.168 -0.189,4.306 -0.54,6.401 v 0 c 3.633,0.45 7.065,0.967 10.259,1.55 v 0 c -1.07,-3.465 -4.526,-7.246 -9.775,-9.997 v 0 c 0.035,0.679 0.056,1.361 0.056,2.046 m -34.126,4.307 c 9.156,0.1 17.424,0.513 25.293,1.216 v 0 c 0.267,-1.631 0.446,-3.304 0.446,-5.011 v 0 c 0,-2.014 -0.231,-3.982 -0.6,-5.887 v 0 c -7.367,-2.035 -15.983,-3.046 -25.139,-3.402 v 0 z m 0,-21.467 c 7.63,0.28 15.288,1.343 22.032,3.109 v 0 c -4.439,-8.242 -12.113,-14.175 -22.032,-15.54 v 0 z"
         id="path100"
         inkscape:connector-curvature="0" />
    </clipPath>
    <mask
       maskUnits="userSpaceOnUse"
       x="0"
       y="0"
       width="1"
       height="1"
       id="mask128">
      <g
         id="g142">
        <g
           clip-path="url(#clipPath110)"
           id="g140">
          <g
             id="g138">
            <g
               id="g136">
              <g
                 id="g134">
                <g
                   id="g132">
                  <path
                     d="M 1064.685,596.196 1237.558,423.324 1064.685,250.451 891.813,423.324 Z"
                     style="fill:url(#linearGradient126);stroke:none"
                     id="path130"
                     inkscape:connector-curvature="0" />
                </g>
              </g>
            </g>
          </g>
        </g>
      </g>
    </mask>
    <clipPath
       clipPathUnits="userSpaceOnUse"
       id="clipPath110">
      <path
         d="M -16426.9,17434.1 H 17929.8 V -16922.6 H -16426.9 Z"
         id="path108"
         inkscape:connector-curvature="0" />
    </clipPath>
    <linearGradient
       x1="0"
       y1="0"
       x2="1"
       y2="0"
       gradientUnits="userSpaceOnUse"
       gradientTransform="matrix(105.31032,-105.31032,-105.31032,-105.31032,1022.394,475.39462)"
       spreadMethod="pad"
       id="linearGradient126">
      <stop
         style="stop-opacity:0;stop-color:#ffffff"
         offset="0"
         id="stop116" />
      <stop
         style="stop-opacity:0;stop-color:#ffffff"
         offset="0.25"
         id="stop118" />
      <stop
         style="stop-opacity:0;stop-color:#ffffff"
         offset="0.26495815"
         id="stop120" />
      <stop
         style="stop-opacity:1;stop-color:#ffffff"
         offset="0.752671"
         id="stop122" />
      <stop
         style="stop-opacity:1;stop-color:#ffffff"
         offset="1"
         id="stop124" />
    </linearGradient>
    <linearGradient
       x1="0"
       y1="0"
       x2="1"
       y2="0"
       gradientUnits="userSpaceOnUse"
       gradientTransform="matrix(105.31032,-105.31032,-105.31032,-105.31032,1022.394,475.39459)"
       spreadMethod="pad"
       id="linearGradient158">
      <stop
         style="stop-opacity:1;stop-color:#031285"
         offset="0"
         id="stop148" />
      <stop
         style="stop-opacity:1;stop-color:#031285"
         offset="0.25"
         id="stop150" />
      <stop
         style="stop-opacity:1;stop-color:#031285"
         offset="0.26495815"
         id="stop152" />
      <stop
         style="stop-opacity:1;stop-color:#031285"
         offset="0.752671"
         id="stop154" />
      <stop
         style="stop-opacity:1;stop-color:#031285"
         offset="1"
         id="stop156" />
    </linearGradient>
    <clipPath
       clipPathUnits="userSpaceOnUse"
       id="clipPath38">
      <path
         d="m 779.44,283.774 h 371.515 V 509.928 H 779.44 Z"
         id="path36"
         inkscape:connector-curvature="0" />
    </clipPath>
  </defs>
  <sodipodi:namedview
     id="base"
     pagecolor="#ffffff"
     bordercolor="#666666"
     borderopacity="1.0"
     inkscape:pageopacity="0.0"
     inkscape:pageshadow="2"
     inkscape:zoom="0.35"
     inkscape:cx="537.6766"
     inkscape:cy="196.48327"
     inkscape:document-units="mm"
     inkscape:current-layer="layer1"
     showgrid="false"
     fit-margin-top="0"
     fit-margin-left="0"
     fit-margin-right="0"
     fit-margin-bottom="0"
     inkscape:window-width="1280"
     inkscape:window-height="705"
     inkscape:window-x="-8"
     inkscape:window-y="-8"
     inkscape:window-maximized="1" />
  <metadata
     id="metadata1073">
    <rdf:RDF>
      <cc:Work
         rdf:about="">
        <dc:format>image/svg+xml</dc:format>
        <dc:type
           rdf:resource="http://purl.org/dc/dcmitype/StillImage" />
        <dc:title></dc:title>
      </cc:Work>
    </rdf:RDF>
  </metadata>
  <g
     inkscape:label="Layer 1"
     inkscape:groupmode="layer"
     id="layer1"
     transform="translate(159.26919,-121.0376)">
    <g
       transform="matrix(0.35277777,0,0,-0.35277777,-434.2383,300.92869)"
       id="g32">
      <g
         id="g34"
         clip-path="url(#clipPath38)">
        <g
           id="g40"
           transform="translate(798.4927,366.3871)">
          <path
             d="m 0,0 c -5.694,1.566 -6.775,3.06 -6.775,5.267 0,2.739 2.28,4.375 6.102,4.375 4.407,0 8.228,-1.395 12.781,-4.662 l 1.611,-1.155 v 12.361 l -0.481,0.298 c -4.193,2.607 -8.717,3.82 -14.235,3.82 -11.139,0 -18.056,-5.927 -18.056,-15.469 0,-8.627 4.322,-13.132 14.886,-15.543 6.431,-1.693 8.193,-2.965 8.193,-5.92 0,-2.902 -2.306,-4.374 -6.856,-4.374 -4.503,0 -9.588,1.89 -13.945,5.186 l -1.631,1.232 v -12.725 l 0.453,-0.302 c 3.75,-2.501 9.627,-4.054 15.339,-4.054 11.915,0 19.028,5.824 19.028,15.578 C 16.414,-7.208 11.657,-2.545 0,0"
             style="fill:#5a5c61;fill-opacity:1;fill-rule:nonzero;stroke:none"
             id="path42"
             inkscape:connector-curvature="0" />
        </g>
        <g
           id="g44"
           transform="translate(847.4445,345.2391)">
          <path
             d="m 0,0 c -1.692,-0.243 -3.504,-0.394 -4.807,-0.394 -6.624,0 -9.982,1.98 -9.982,5.886 0,4.954 6.133,5.993 11.278,5.993 H 0 Z m -6.424,41.452 c -5.75,0 -11.442,-1.425 -16.032,-4.013 l -0.516,-0.292 V 25.531 l 1.519,0.862 c 4.57,2.593 8.672,3.749 13.304,3.749 3.042,0 8.149,-0.847 8.149,-6.531 v -2.974 h -4.266 c -14.915,0 -23.128,-5.494 -23.128,-15.469 0,-7.106 3.901,-15.576 22.48,-15.576 5.538,0 12.072,0.775 16.65,1.974 l 0.759,0.199 V 24.15 c 0,11.32 -6.542,17.302 -18.919,17.302"
             style="fill:#5a5c61;fill-opacity:1;fill-rule:nonzero;stroke:none"
             id="path46"
             inkscape:connector-curvature="0" />
        </g>
        <g
           id="g48"
           transform="translate(943.7668,334.7223)">
          <path
             d="M 0,0 C 6.1,0 13.478,0.859 18.797,2.188 L 19.568,2.38 V 50.891 H 6.966 V 11.389 c -2.376,-0.323 -4.997,-0.511 -7.18,-0.511 -7.129,0 -10.309,2.68 -10.309,8.689 V 50.891 H -23.125 V 18.813 C -23.125,5.979 -15.776,0 0,0"
             style="fill:#5a5c61;fill-opacity:1;fill-rule:nonzero;stroke:none"
             id="path50"
             inkscape:connector-curvature="0" />
        </g>
        <g
           id="g52"
           transform="translate(985.5265,373.1094)">
          <path
             d="m 0,0 c 2.217,0.803 4.501,1.194 6.964,1.194 3.406,0 6.366,-0.485 8.796,-1.439 l 1.389,-0.546 v 12.628 l -0.755,0.2 c -3.295,0.879 -5.939,1.222 -9.43,1.222 -6.666,0 -13.648,-1.778 -19.157,-4.877 l -0.518,-0.291 v -45.4 H 0 Z"
             style="fill:#5a5c61;fill-opacity:1;fill-rule:nonzero;stroke:none"
             id="path54"
             inkscape:connector-curvature="0" />
        </g>
        <g
           id="g56"
           transform="translate(1032.2001,345.2391)">
          <path
             d="m 0,0 c -1.692,-0.243 -3.504,-0.394 -4.806,-0.394 -6.626,0 -9.985,1.98 -9.985,5.886 0,4.954 6.133,5.993 11.277,5.993 H 0 Z m -6.425,41.452 c -5.749,0 -11.441,-1.425 -16.031,-4.013 l -0.516,-0.292 V 25.53 l 1.519,0.863 c 4.568,2.593 8.67,3.749 13.302,3.749 3.044,0 8.151,-0.847 8.151,-6.531 v -2.974 h -4.268 c -14.913,0 -23.126,-5.494 -23.126,-15.469 0,-7.106 3.901,-15.576 22.48,-15.576 5.538,0 12.072,0.775 16.65,1.974 l 0.759,0.199 V 24.15 c 0,11.32 -6.542,17.302 -18.92,17.302"
             style="fill:#5a5c61;fill-opacity:1;fill-rule:nonzero;stroke:none"
             id="path58"
             inkscape:connector-curvature="0" />
        </g>
        <g
           id="g60"
           transform="translate(885.7283,345.9234)">
          <path
             d="m 0,0 c -1.489,0 -2.993,0.149 -4.481,0.444 v 28.305 c 1.615,0.25 3.367,0.387 5.019,0.387 9.156,0 14.623,-5.265 14.623,-14.083 C 15.161,5.487 9.635,0 0,0 m 0.647,40.768 c -7.561,0 -13.923,-1.791 -17.043,-2.857 l -0.687,-0.236 v -67.211 h 12.602 v 18.719 c 1.629,-0.249 3.408,-0.384 5.128,-0.384 16.859,0 27.333,10.184 27.333,26.577 0,15.662 -10.474,25.392 -27.333,25.392"
             style="fill:#5a5c61;fill-opacity:1;fill-rule:nonzero;stroke:none"
             id="path62"
             inkscape:connector-curvature="0" />
        </g>
        <g
           id="g64"
           transform="translate(892.6929,310.5642)">
          <path
             d="m 0,0 c 0.827,3.195 2.95,5.08 5.777,5.08 3.184,0 4.928,-1.708 5.19,-5.08 z m 5.95,10.951 c -7.462,0 -12.877,-5.924 -12.877,-14.088 0,-8.184 5.591,-13.684 13.914,-13.684 3.677,0 7.068,0.897 9.302,2.462 l 0.232,0.162 v 6.305 l -0.843,-0.555 c -2.541,-1.674 -5.019,-2.388 -8.288,-2.388 -3.356,0 -7.105,1.912 -7.653,6.06 h 17.707 v 3.425 c 0,7.817 -4.189,12.301 -11.494,12.301"
             style="fill:#5a5c61;fill-opacity:1;fill-rule:nonzero;stroke:none"
             id="path66"
             inkscape:connector-curvature="0" />
        </g>
        <g
           id="g68"
           transform="translate(926.828,321.9189)">
          <path
             d="m 0,0 c -3.845,0 -8.293,-0.832 -11.896,-2.227 l -0.347,-0.134 v -24.834 h 6.792 v 20.306 c 1.44,0.393 3.232,0.615 4.99,0.615 3.318,0 4.932,-1.463 4.932,-4.471 v -16.45 h 6.734 v 16.968 C 11.205,-3.345 7.539,0 0,0"
             style="fill:#5a5c61;fill-opacity:1;fill-rule:nonzero;stroke:none"
             id="path70"
             inkscape:connector-curvature="0" />
        </g>
        <g
           id="g72"
           transform="translate(948.8519,310.9679)">
          <path
             d="m 0,0 c 0.827,3.196 2.951,5.081 5.776,5.081 3.184,0 4.93,-1.709 5.191,-5.081 z m 5.95,10.951 c -7.462,0 -12.877,-5.925 -12.877,-14.087 0,-8.185 5.591,-13.685 13.914,-13.685 3.676,0 7.067,0.897 9.302,2.462 l 0.232,0.162 v 6.305 l -0.843,-0.555 c -2.54,-1.674 -5.018,-2.388 -8.288,-2.388 -3.357,0 -7.105,1.912 -7.653,6.06 h 17.707 v 3.426 c 0,7.817 -4.189,12.3 -11.494,12.3"
             style="fill:#5a5c61;fill-opacity:1;fill-rule:nonzero;stroke:none"
             id="path74"
             inkscape:connector-curvature="0" />
        </g>
        <g
           id="g76"
           transform="translate(1030.7388,302.2954)">
          <path
             d="m 0,0 -6.875,19.046 h -7.291 l 10.763,-27.229 -3.784,-9.763 h 6.756 L 13.82,19.046 H 6.767 Z"
             style="fill:#5a5c61;fill-opacity:1;fill-rule:nonzero;stroke:none"
             id="path78"
             inkscape:connector-curvature="0" />
        </g>
        <g
           id="g80"
           transform="translate(1003.0799,300.7368)">
          <path
             d="m 0,0 c -5.018,0 -7.354,2.386 -7.354,7.51 0,4.686 2.904,7.484 7.769,7.484 0.877,0 1.806,-0.072 2.66,-0.205 L 3.08,0.669 C 2.021,0.236 0.939,0 0,0 m 9.418,19.663 c -1.66,0.567 -5.043,1.519 -9.06,1.519 -8.964,0 -14.532,-5.173 -14.532,-13.5 0,-8.384 5.37,-13.592 14.015,-13.592 1.171,0 2.358,0.286 3.238,0.634 -0.128,-5.054 -3.92,-5.817 -6.196,-5.817 -2.816,0 -5.408,0.693 -8.157,2.181 l -0.802,0.435 v -6.503 l 0.315,-0.147 c 2.557,-1.184 5.626,-1.836 8.644,-1.836 6.253,0 12.935,3.05 12.935,11.609 L 9.785,19.537 Z"
             style="fill:#5a5c61;fill-opacity:1;fill-rule:nonzero;stroke:none"
             id="path82"
             inkscape:connector-curvature="0" />
        </g>
        <g
           id="g84"
           transform="translate(981.838,321.7454)">
          <path
             d="m 0,0 c -3.562,0 -7.293,-0.949 -10.237,-2.606 l -0.276,-0.155 v -24.261 h 6.792 v 19.938 c 1.185,0.429 2.406,0.638 3.721,0.638 1.82,0 3.402,-0.259 4.701,-0.769 L 5.443,-7.507 V -0.76 L 5.04,-0.653 C 3.279,-0.183 1.865,0 0,0"
             style="fill:#5a5c61;fill-opacity:1;fill-rule:nonzero;stroke:none"
             id="path86"
             inkscape:connector-curvature="0" />
        </g>
        <g
           id="g88"
           transform="translate(1132.5459,392.4015)">
          <path
             d="m 0,0 c -1.752,4.037 -5.126,7.809 -9.971,11.008 0.743,-0.113 1.475,-0.231 2.194,-0.353 C 5.316,8.424 11.757,5.625 11.757,4.348 11.757,3.357 7.859,1.724 0,0 m -15.653,-19.075 c 0.036,0.679 0.057,1.361 0.057,2.046 0,2.168 -0.19,4.304 -0.541,6.4 3.633,0.45 7.064,0.968 10.259,1.55 -1.07,-3.465 -4.525,-7.246 -9.775,-9.996 m -2.608,16.104 c -1.899,4.814 -4.775,9.234 -8.545,13.003 -0.772,0.772 -1.576,1.499 -2.4,2.196 3.754,-0.584 7.239,-1.483 10.367,-2.925 5.389,-2.485 9.477,-6.763 11.63,-10.704 -0.193,-0.033 -0.373,-0.067 -0.568,-0.1 -3.265,-0.556 -6.781,-1.046 -10.484,-1.47 m -6.322,-19.434 c -7.368,-2.034 -15.984,-3.046 -25.14,-3.401 v 13.083 c 9.156,0.1 17.424,0.514 25.293,1.217 0.267,-1.632 0.447,-3.304 0.447,-5.012 0,-2.014 -0.231,-3.981 -0.6,-5.887 m -25.14,-24.215 v 12.43 c 7.63,0.28 15.288,1.344 22.033,3.11 -4.44,-8.242 -12.114,-14.176 -22.033,-15.54 m 0,60.149 c 0,-10e-4 0.257,-0.003 0.365,-0.004 10.043,-1.569 18.429,-8.24 22.561,-17.322 -7.223,-0.588 -14.533,-0.942 -22.926,-1.036 z m -8.394,74.229 c -12.971,-0.333 -25.44,-2.226 -36.261,-5.481 2.174,5.174 5.348,9.929 9.436,14.017 7.287,7.287 16.906,11.694 26.825,12.649 z m 0,-29.672 c -13.734,-0.11 -26.747,-0.76 -38.712,-1.895 -0.62,2.957 -0.966,5.998 -0.966,9.091 0,2.448 0.23,4.863 0.621,7.231 11.13,4.084 24.56,6.473 39.057,6.86 z m 0,-36.46 c -9.919,0.964 -19.525,5.368 -26.801,12.644 -4.014,4.014 -7.13,8.673 -9.301,13.738 11.227,1.008 23.131,1.589 36.102,1.694 z m -45,9.084 c -6.019,2.777 -10.893,6.093 -14.096,9.587 -1.286,1.404 -2.285,2.826 -3.029,4.258 0.437,0.082 0.869,0.163 1.321,0.245 4.931,0.888 10.298,1.662 15.991,2.32 0.27,-0.73 0.552,-1.456 0.857,-2.176 2.631,-6.221 6.397,-11.808 11.194,-16.605 1.06,-1.06 2.165,-2.06 3.301,-3.019 -5.641,1.435 -10.873,3.237 -15.539,5.39 m -15.804,-4.485 c -22.204,4 -26.199,8.462 -26.759,9.288 0.466,0.685 3.316,3.886 17.023,7.244 2.709,-6.771 9.043,-12.93 18.525,-17.93 -3.052,0.43 -5.994,0.895 -8.789,1.398 m 1.708,34.272 c 2.66,2.901 6.486,5.675 11.149,8.124 -0.069,-1.108 -0.117,-2.22 -0.117,-3.339 0,-3.385 0.327,-6.72 0.96,-9.988 -5.799,-0.695 -11.253,-1.513 -16.278,-2.447 0.558,2.58 1.989,5.143 4.286,7.65 M 10.599,13.017 c -3.728,1.666 -8.941,3.14 -15.514,4.383 -12.131,2.293 -28.022,3.629 -44.808,3.816 v 96.31 h -4.214 c -7.05,0 -13.893,-1.382 -20.337,-4.108 -6.221,-2.631 -11.808,-6.397 -16.605,-11.194 -4.797,-4.796 -8.563,-10.383 -11.194,-16.605 -0.962,-2.272 -1.746,-4.596 -2.372,-6.96 -0.737,-0.314 -1.471,-0.631 -2.185,-0.961 -14.871,-6.862 -23.187,-16.314 -23.51,-26.674 -5.666,-1.367 -10.355,-2.883 -13.988,-4.53 -2.908,-1.319 -5.108,-2.697 -6.726,-4.214 -2.708,-2.537 -3.276,-5.08 -3.276,-6.767 0,-1.688 0.568,-4.232 3.276,-6.769 1.618,-1.516 3.818,-2.894 6.726,-4.213 5.134,-2.327 12.341,-4.396 21.477,-6.148 17.407,-3.338 40.117,-5.253 64.534,-5.445 v -68.619 h 4.25 c 10.222,0 19.833,4.171 27.061,11.4 4.702,4.701 8.019,10.509 9.771,16.74 0.35,0.153 0.706,0.35 1.049,0.509 10.734,4.953 16.836,11.85 17.342,19.464 3.694,0.917 6.797,1.939 9.243,3.032 5.182,2.315 7.81,5.272 7.81,8.776 0,3.504 -2.628,6.461 -7.81,8.777"
             style="fill:#ffffff;fill-opacity:1;fill-rule:nonzero;stroke:none"
             id="path90"
             inkscape:connector-curvature="0" />
        </g>
        <g
           id="g92"
           transform="translate(1132.5459,392.4015)">
          <path
             d="m 0,0 c -1.752,4.037 -5.126,7.809 -9.971,11.008 0.743,-0.113 1.475,-0.231 2.194,-0.353 C 5.316,8.424 11.757,5.625 11.757,4.348 11.757,3.357 7.859,1.724 0,0 m -15.653,-19.075 c 0.036,0.679 0.057,1.361 0.057,2.046 0,2.168 -0.19,4.304 -0.541,6.4 3.633,0.45 7.064,0.968 10.259,1.55 -1.07,-3.465 -4.525,-7.246 -9.775,-9.996 m -2.608,16.104 c -1.899,4.814 -4.775,9.234 -8.545,13.003 -0.772,0.772 -1.576,1.499 -2.4,2.196 3.754,-0.584 7.239,-1.483 10.367,-2.925 5.389,-2.485 9.477,-6.763 11.63,-10.704 -0.193,-0.033 -0.373,-0.067 -0.568,-0.1 -3.265,-0.556 -6.781,-1.046 -10.484,-1.47 m -6.322,-19.434 c -7.368,-2.034 -15.984,-3.046 -25.14,-3.401 v 13.083 c 9.156,0.1 17.424,0.514 25.293,1.217 0.267,-1.632 0.447,-3.304 0.447,-5.012 0,-2.014 -0.231,-3.981 -0.6,-5.887 m -25.14,-24.215 v 12.43 c 7.63,0.28 15.288,1.344 22.033,3.11 -4.44,-8.242 -12.114,-14.176 -22.033,-15.54 m 0,60.149 c 0,-10e-4 0.257,-0.003 0.365,-0.004 10.043,-1.569 18.429,-8.24 22.561,-17.322 -7.223,-0.588 -14.533,-0.942 -22.926,-1.036 z m -8.394,74.229 c -12.971,-0.333 -25.44,-2.226 -36.261,-5.481 2.174,5.174 5.348,9.929 9.436,14.017 7.287,7.287 16.906,11.694 26.825,12.649 z m 0,-29.672 c -13.734,-0.11 -26.747,-0.76 -38.712,-1.895 -0.62,2.957 -0.966,5.998 -0.966,9.091 0,2.448 0.23,4.863 0.621,7.231 11.13,4.084 24.56,6.473 39.057,6.86 z m 0,-36.46 c -9.919,0.964 -19.525,5.368 -26.801,12.644 -4.014,4.014 -7.13,8.673 -9.301,13.738 11.227,1.008 23.131,1.589 36.102,1.694 z m -45,9.084 c -6.019,2.777 -10.893,6.093 -14.096,9.587 -1.286,1.404 -2.285,2.826 -3.029,4.258 0.437,0.082 0.869,0.163 1.321,0.245 4.931,0.888 10.298,1.662 15.991,2.32 0.27,-0.73 0.552,-1.456 0.857,-2.176 2.631,-6.221 6.397,-11.808 11.194,-16.605 1.06,-1.06 2.165,-2.06 3.301,-3.019 -5.641,1.435 -10.873,3.237 -15.539,5.39 m -15.804,-4.485 c -22.204,4 -26.199,8.462 -26.759,9.288 0.466,0.685 3.316,3.886 17.023,7.244 2.709,-6.771 9.043,-12.93 18.525,-17.93 -3.052,0.43 -5.994,0.895 -8.789,1.398 m 1.708,34.272 c 2.66,2.901 6.486,5.675 11.149,8.124 -0.069,-1.108 -0.117,-2.22 -0.117,-3.339 0,-3.385 0.327,-6.72 0.96,-9.988 -5.799,-0.695 -11.253,-1.513 -16.278,-2.447 0.558,2.58 1.989,5.143 4.286,7.65 M 10.599,13.017 c -3.728,1.666 -8.941,3.14 -15.514,4.383 -12.131,2.293 -28.022,3.629 -44.808,3.816 v 96.31 h -4.214 c -7.05,0 -13.893,-1.382 -20.337,-4.108 -6.221,-2.631 -11.808,-6.397 -16.605,-11.194 -4.797,-4.796 -8.563,-10.383 -11.194,-16.605 -0.962,-2.272 -1.746,-4.596 -2.372,-6.96 -0.737,-0.314 -1.471,-0.631 -2.185,-0.961 -14.871,-6.862 -23.187,-16.314 -23.51,-26.674 -5.666,-1.367 -10.355,-2.883 -13.988,-4.53 -2.908,-1.319 -5.108,-2.697 -6.726,-4.214 -2.708,-2.537 -3.276,-5.08 -3.276,-6.767 0,-1.688 0.568,-4.232 3.276,-6.769 1.618,-1.516 3.818,-2.894 6.726,-4.213 5.134,-2.327 12.341,-4.396 21.477,-6.148 17.407,-3.338 40.117,-5.253 64.534,-5.445 v -68.619 h 4.25 c 10.222,0 19.833,4.171 27.061,11.4 4.702,4.701 8.019,10.509 9.771,16.74 0.35,0.153 0.706,0.35 1.049,0.509 10.734,4.953 16.836,11.85 17.342,19.464 3.694,0.917 6.797,1.939 9.243,3.032 5.182,2.315 7.81,5.272 7.81,8.776 0,3.504 -2.628,6.461 -7.81,8.777"
             style="fill:#00ace2;fill-opacity:1;fill-rule:nonzero;stroke:none"
             id="path94"
             inkscape:connector-curvature="0" />
        </g>
      </g>
    </g>
    <g
       transform="matrix(0.35277777,0,0,-0.35277777,-434.2383,300.92869)"
       id="g96">
      <g
         id="g98"
         clip-path="url(#clipPath102)">
        <g
           id="g104">
          <g
             id="g106" />
          <g
             id="g144"
             mask="url(#mask128)">
            <g
               id="g146">
              <path
                 d="m 1078.609,509.927 c -7.051,0 -13.893,-1.381 -20.337,-4.107 v 0 c -6.222,-2.631 -11.809,-6.398 -16.605,-11.194 v 0 c -4.797,-4.797 -8.563,-10.384 -11.195,-16.605 v 0 c -0.96,-2.273 -1.745,-4.597 -2.371,-6.96 v 0 c -0.737,-0.315 -1.471,-0.632 -2.186,-0.961 v 0 c -14.869,-6.862 -23.186,-16.315 -23.509,-26.674 v 0 c -5.665,-1.368 -10.356,-2.884 -13.988,-4.531 v 0 c -2.908,-1.318 -5.108,-2.697 -6.727,-4.213 v 0 c -2.707,-2.537 -3.275,-5.081 -3.275,-6.768 v 0 c 0,-1.687 0.568,-4.231 3.275,-6.768 v 0 c 1.619,-1.517 3.819,-2.895 6.727,-4.214 v 0 c 5.133,-2.327 12.341,-4.395 21.477,-6.148 v 0 c 17.407,-3.337 40.118,-5.252 64.535,-5.445 v 0 -68.618 h 4.249 c 10.223,0 19.833,4.171 27.062,11.399 v 0 c 4.701,4.702 8.018,10.51 9.77,16.74 v 0 c 0.35,0.153 0.706,0.35 1.049,0.508 v 0 c 10.733,4.954 16.836,11.851 17.342,19.466 v 0 c 3.693,0.917 6.797,1.937 9.243,3.032 v 0 c 5.182,2.315 7.809,5.271 7.809,8.776 v 0 c 0,3.503 -2.627,6.46 -7.809,8.776 v 0 c -3.728,1.665 -8.941,3.142 -15.515,4.383 v 0 c -12.13,2.293 -28.021,3.63 -44.807,3.816 v 0 96.31 z m -31.005,-21.232 c 7.287,7.288 16.906,11.695 26.826,12.649 v 0 -21.184 c -12.972,-0.334 -25.44,-2.227 -36.262,-5.481 v 0 c 2.173,5.173 5.348,9.929 9.436,14.016 m -12.852,-31.012 c 0,2.448 0.229,4.863 0.62,7.232 v 0 c 11.13,4.083 24.56,6.472 39.058,6.86 v 0 -21.287 c -13.735,-0.111 -26.748,-0.761 -38.713,-1.896 v 0 c -0.62,2.958 -0.965,5.999 -0.965,9.091 m -19.419,-4.785 c 2.66,2.902 6.486,5.675 11.148,8.124 v 0 c -0.069,-1.108 -0.116,-2.219 -0.116,-3.339 v 0 c 0,-3.385 0.326,-6.72 0.959,-9.987 v 0 c -5.798,-0.696 -11.252,-1.513 -16.277,-2.447 v 0 c 0.557,2.579 1.989,5.143 4.286,7.649 m 32.294,-26.227 c -4.013,4.014 -7.129,8.673 -9.301,13.739 v 0 c 11.227,1.008 23.132,1.588 36.104,1.693 v 0 -28.075 c -9.92,0.964 -19.527,5.368 -26.803,12.643 m -18.198,-3.559 c -6.018,2.777 -10.893,6.092 -14.096,9.586 v 0 c -1.286,1.404 -2.286,2.826 -3.029,4.258 v 0 c 0.436,0.082 0.869,0.164 1.321,0.245 v 0 c 4.931,0.888 10.298,1.661 15.99,2.319 v 0 c 0.271,-0.729 0.553,-1.455 0.857,-2.174 v 0 c 2.632,-6.222 6.398,-11.809 11.195,-16.605 v 0 c 1.06,-1.06 2.165,-2.061 3.3,-3.019 v 0 c -5.641,1.434 -10.872,3.237 -15.538,5.39 m -15.804,-4.486 c -22.205,4 -26.199,8.462 -26.76,9.288 v 0 c 0.466,0.686 3.317,3.887 17.024,7.245 v 0 c 2.709,-6.772 9.042,-12.93 18.525,-17.931 v 0 c -3.052,0.431 -5.995,0.895 -8.789,1.398 m 69.198,-12.695 c 0,-10e-4 0.257,-0.004 0.366,-0.005 v 0 c 10.042,-1.569 18.428,-8.239 22.559,-17.321 v 0 c -7.222,-0.588 -14.532,-0.942 -22.925,-1.037 v 0 z m 22.918,-3.497 c -0.773,0.771 -1.578,1.499 -2.401,2.195 v 0 c 3.754,-0.584 7.239,-1.483 10.367,-2.925 v 0 c 5.389,-2.485 9.478,-6.762 11.63,-10.704 v 0 c -0.193,-0.033 -0.373,-0.067 -0.568,-0.099 v 0 c -3.265,-0.557 -6.782,-1.046 -10.483,-1.47 v 0 c -1.9,4.813 -4.777,9.234 -8.545,13.003 m 16.834,0.976 c 0.743,-0.114 1.475,-0.232 2.194,-0.354 v 0 c 13.093,-2.23 19.534,-5.029 19.534,-6.306 v 0 c 0,-0.992 -3.899,-2.625 -11.757,-4.349 v 0 c -1.753,4.037 -5.126,7.809 -9.971,11.009 m -5.626,-28.038 c 0,2.168 -0.189,4.306 -0.54,6.401 v 0 c 3.633,0.45 7.065,0.967 10.259,1.55 v 0 c -1.07,-3.465 -4.526,-7.246 -9.775,-9.997 v 0 c 0.035,0.679 0.056,1.361 0.056,2.046 m -34.126,4.307 c 9.156,0.1 17.424,0.513 25.293,1.216 v 0 c 0.267,-1.631 0.446,-3.304 0.446,-5.011 v 0 c 0,-2.014 -0.231,-3.982 -0.6,-5.887 v 0 c -7.367,-2.035 -15.983,-3.046 -25.139,-3.402 v 0 z m 0,-21.467 c 7.63,0.28 15.288,1.343 22.032,3.109 v 0 c -4.439,-8.242 -12.113,-14.175 -22.032,-15.54 v 0 z"
                 style="fill:url(#linearGradient158);stroke:none"
                 id="path160"
                 inkscape:connector-curvature="0" />
            </g>
          </g>
        </g>
      </g>
    </g>
  </g>
</svg>
