<?xml version="1.0" encoding="utf-8"?>
<!-- Generator: Adobe Illustrator 19.2.1, SVG Export Plug-In . SVG Version: 6.00 Build 0)  -->
<svg version="1.1" id="layer" xmlns="http://www.w3.org/2000/svg" xmlns:xlink="http://www.w3.org/1999/xlink" x="0px" y="0px"
	 viewBox="0 0 652 652" style="enable-background:new 0 0 652 652;" xml:space="preserve">
<style type="text/css">
	.st0{fill-rule:evenodd;clip-rule:evenodd;fill:#004097;}
	.st1{fill:#004097;}
</style>
<g>
	<path class="st0" d="M361.9,363.6v2.9h0c-1.2-2.3-3.5-3.4-6.1-3.4c-7.1,0-9.5,6-9.5,10.9c0,5.6,3.1,10.4,9.2,10.4
		c2.6,0,5.3-1.2,6.4-3.7h0.1v1.4c0,4.6-1.7,7.8-6.2,7.8c-2.2,0-5.2-0.9-5.3-3.3H347c0.2,4.5,4.7,6,8.5,6c6.5,0,9.5-3.4,9.5-10.1
		v-18.8H361.9z M355.6,381.4c-4.5,0-5.8-4.1-5.8-7.8c0-3.9,1.7-7.5,6.1-7.5c4.3,0,5.8,3.7,5.8,7.4
		C361.7,377.3,360.1,381.4,355.6,381.4"/>
	<polygon class="st1" points="51.7,384.1 55.4,384.1 55.4,358.9 64.9,358.9 64.9,355.7 42.2,355.7 42.2,358.9 51.7,358.9 	"/>
	<path class="st1" d="M67.1,384.1h3.4v-11.6c0-3.7,2-6.4,6.1-6.4c2.6,0,4.2,1.6,4.2,4.1v13.9h3.4v-13.5c0-4.4-1.7-7.5-7.1-7.5
		c-2.5,0-5.4,1-6.5,3.5h-0.1v-10.9h-3.4V384.1z"/>
	<path class="st0" d="M97.3,363.1c-5.6,0-9.7,4.5-9.7,10.7c0.2,6.3,3.3,10.8,9.9,10.8c4.6,0,7.9-2.5,8.8-7H103c-0.6,2.7-2.5,4-5.3,4
		c-4.5,0-6.5-3.2-6.4-6.8h15.4C106.8,369.9,104.6,363.1,97.3,363.1 M91.3,371.9c0.2-3.1,2.3-5.8,5.9-5.8c3.3,0,5.8,2.6,5.9,5.8H91.3
		z"/>
	<path class="st0" d="M137.5,381.6c-1.1,0-1.1-0.7-1.1-2.3v-10.6c0-4.8-4-5.6-7.7-5.6c-4.6,0-8.5,1.8-8.7,6.9h3.4
		c0.2-3,2.3-3.9,5.1-3.9c2.1,0,4.6,0.5,4.6,3.4c0,2.5-3.2,2.3-6.9,3c-3.5,0.7-7,1.7-7,6.3c0,4.1,3.1,5.8,6.8,5.8
		c2.9,0,5.4-1,7.2-3.2c0,2.2,1.1,3.2,2.9,3.2c1.1,0,1.8-0.2,2.4-0.6v-2.6C138.1,381.6,137.8,381.6,137.5,381.6 M133.1,377
		c0,1.9-1.8,4.7-6.3,4.7c-2.1,0-4-0.8-4-3c0-2.5,1.9-3.3,4.1-3.7c2.3-0.4,4.8-0.4,6.1-1.4V377z"/>
	<path class="st1" d="M141.2,384.1h3.4V375c0-5.2,2-8.3,7.4-8.3v-3.6c-3.7-0.1-5.9,1.5-7.6,4.8h-0.1v-4.3h-3.2V384.1z"/>
	<path class="st1" d="M160.2,357.4h-3.4v6.2h-3.5v3h3.5v13.1c0,3.8,1.4,4.5,4.9,4.5h2.6v-3h-1.5c-2.1,0-2.5-0.3-2.5-1.8v-12.8h4.1
		v-3h-4.1V357.4z"/>
	<path class="st0" d="M187.1,363.1c-6.5,0-10,4.7-10,10.8c0,6,3.5,10.7,10,10.7c6.5,0,10-4.7,10-10.7
		C197.1,367.8,193.6,363.1,187.1,363.1 M187.1,381.6c-3.5,0-6.4-2.8-6.4-7.8c0-5,2.9-7.8,6.4-7.8c3.5,0,6.4,2.8,6.4,7.8
		C193.5,378.8,190.6,381.6,187.1,381.6"/>
	<path class="st1" d="M202,384.1h3.4v-17.6h4v-3h-4v-2.9c0-1.8,1-2.3,2.6-2.3c0.6,0,1.3,0.1,1.9,0.3v-2.9c-0.6-0.2-1.5-0.3-2.2-0.3
		c-3.7,0-5.7,1.7-5.7,5.1v3.1h-3.5v3h3.5V384.1z"/>
	<path class="st1" d="M222.7,384.1h3.4v-11.6c0-3.7,2-6.4,6.1-6.4c2.6,0,4.2,1.6,4.2,4.1v13.9h3.4v-13.5c0-4.4-1.7-7.5-7.1-7.5
		c-2.5,0-5.4,1-6.5,3.5H226v-10.9h-3.4V384.1z"/>
	<path class="st0" d="M261.5,381.6c-1.1,0-1.1-0.7-1.1-2.3v-10.6c0-4.8-4-5.6-7.7-5.6c-4.6,0-8.5,1.8-8.7,6.9h3.4
		c0.2-3,2.3-3.9,5.1-3.9c2.1,0,4.6,0.5,4.6,3.4c0,2.5-3.2,2.3-6.9,3c-3.5,0.7-7,1.7-7,6.3c0,4.1,3.1,5.8,6.8,5.8
		c2.9,0,5.4-1,7.2-3.2c0,2.2,1.1,3.2,2.9,3.2c1.1,0,1.8-0.2,2.4-0.6v-2.6C262.1,381.6,261.8,381.6,261.5,381.6 M257.1,377
		c0,1.9-1.8,4.7-6.3,4.7c-2.1,0-4-0.8-4-3c0-2.5,1.9-3.3,4.1-3.7c2.3-0.4,4.8-0.4,6.1-1.4V377z"/>
	<path class="st1" d="M265.3,384.1h3.4v-11.6c0-3.7,2-6.4,6.1-6.4c2.6,0,4.2,1.6,4.2,4.1v13.9h3.4v-13.5c0-4.4-1.7-7.5-7.1-7.5
		c-2.9,0-5.2,1.2-6.7,3.7h-0.1v-3.3h-3.2V384.1z"/>
	<path class="st0" d="M302,355.7v10.6h-0.1c-1.5-2.4-4.5-3.2-6.6-3.2c-6.3,0-9.4,4.9-9.4,10.7c0,5.8,3.1,10.8,9.5,10.8
		c2.8,0,5.4-1,6.6-3.3h0.1v2.8h3.4v-28.4H302z M295.8,381.6c-4.4,0-6.4-3.7-6.4-7.6c0-4,1.6-7.9,6.2-7.9c4.7,0,6.5,3.7,6.5,7.8
		C302.1,377.7,300.3,381.6,295.8,381.6"/>
	<rect x="310.4" y="355.7" class="st1" width="3.4" height="28.4"/>
	<path class="st0" d="M318.8,384.1h3.4v-20.6h-3.4V384.1z M322.2,355.7h-3.4v4.1h3.4V355.7z"/>
	<path class="st1" d="M327,384.1h3.4v-11.6c0-3.7,2-6.4,6.1-6.4c2.6,0,4.2,1.6,4.2,4.1v13.9h3.4v-13.5c0-4.4-1.7-7.5-7.1-7.5
		c-2.9,0-5.2,1.2-6.7,3.7h-0.1v-3.3H327V384.1z"/>
	<path class="st0" d="M398.9,381.6c-1.1,0-1.1-0.7-1.1-2.3v-10.6c0-4.8-4-5.6-7.7-5.6c-4.6,0-8.5,1.8-8.7,6.9h3.4
		c0.2-3,2.3-3.9,5.1-3.9c2.1,0,4.6,0.5,4.6,3.4c0,2.5-3.2,2.3-6.9,3c-3.5,0.7-7,1.7-7,6.3c0,4.1,3.1,5.8,6.8,5.8
		c2.9,0,5.4-1,7.2-3.2c0,2.2,1.1,3.2,2.9,3.2c1.1,0,1.8-0.2,2.4-0.6v-2.6C399.5,381.6,399.2,381.6,398.9,381.6 M394.5,377
		c0,1.9-1.8,4.7-6.3,4.7c-2.1,0-4-0.8-4-3c0-2.5,1.9-3.3,4.1-3.7c2.3-0.4,4.8-0.4,6.1-1.4V377z"/>
	<path class="st0" d="M402.9,384.1h3.4v-20.6h-3.4V384.1z M406.3,355.7h-3.4v4.1h3.4V355.7z"/>
	<path class="st1" d="M411,384.1h3.4V375c0-5.2,2-8.3,7.4-8.3v-3.6c-3.7-0.1-5.9,1.5-7.6,4.8h-0.1v-4.3H411V384.1z"/>
	<path class="st0" d="M209.8,251.2c-22.1,0-40.1,17.5-40.1,39.1c0,21.6,17.9,39.1,40.1,39.1s40.1-17.5,40.1-39.1
		C249.9,268.7,231.9,251.2,209.8,251.2 M209.8,312.4c-11.7,0-21.3-9.9-21.3-22c0-12.2,9.5-22,21.3-22c11.7,0,21.3,9.9,21.3,22
		C231,302.5,221.5,312.4,209.8,312.4"/>
	<path class="st1" d="M82.4,254v15c-5.8-0.1-20.7-0.1-21.4,0c0,0.1-0.1,0.3,0.1,0.4v21.4H61c0,1.8,0.1,11.9,0.1,11.9H61
		c-0.1,0.7,0.1,25,0,26.2H42.1l0-12.7c0.1-1-0.1-41.7,0-47.2H20.4v-15H82.4z"/>
	<polygon class="st1" points="400.4,288.5 400.4,295.7 388.4,295.7 388.4,328.1 379.9,328.1 379.9,295.7 367.8,295.7 367.8,288.5 	
		"/>
	<polygon class="st1" points="434.5,295.7 416.8,295.7 416.8,304.2 434.5,304.2 434.5,311.5 416.8,311.5 416.8,320.7 434.5,320.7 
		434.5,328.1 408.3,328.1 408.3,288.5 434.5,288.5 	"/>
	<polygon class="st1" points="483.8,328.1 483.8,288.4 492.2,288.4 492.2,303.8 507.3,303.8 507.3,288.4 515.7,288.4 515.7,328.1 
		507.3,328.1 507.3,311.6 492.2,311.6 492.2,328.1 	"/>
	<polygon class="st1" points="525.1,288.4 533.1,288.4 551.3,313.6 551.3,288.4 559.6,288.4 559.6,328.1 551.8,328.1 533.5,302 
		533.5,328.1 525.1,328.1 	"/>
	<rect x="568.9" y="288.4" class="st1" width="8.6" height="39.6"/>
	<polygon class="st1" points="587.1,288.4 595.6,288.4 595.6,305.4 608.6,288.4 619.5,288.4 604.2,307.4 620.4,328 609.5,328 
		595.6,309.5 595.6,328 587.1,328 	"/>
	<path class="st1" d="M474.4,299.4c-3.2-2.6-7.6-4.1-11-4.1c-7.6,0-11.3,5.8-11.3,12.8c0,7,3.8,12.8,11.3,12.8c3.4,0,7.8-1.4,11-4v9
		c-3.2,2.1-7.3,2.6-12,2.6c-5.9,0-10.6-2.3-14-5.9c-3.4-3.6-5.1-8.5-5.1-14.8c0-6.8,1.9-12,5.8-15.6c3.4-3.2,7.6-4.8,12.8-4.8
		c5.2,0,9.4,0.6,12.5,2.8L474.4,299.4z"/>
	<path class="st0" d="M131.9,254c1.7,0.1,3.3,0.3,4.9,0.6c0.1,0,4,0.9,7.2,2.6c3.3,1.8,5.8,4.4,5.8,4.4c1.5,1.7,3.4,4.1,4.2,6.5
		c0.3,0.3,1.2,3.7,1.2,3.7c0.1,0.4,0.7,3.2,0.7,4.9c0.1,0.4-0.1,1.5,0,1.6c0,0-0.1,1.7-0.1,2.3c-0.2,1.5-0.8,5.2-0.8,5.2
		c-1.2,5.9-5.2,11.6-11.4,14.4c-0.7,0.4-2.7,0.8-2.9,1c-0.1,0.1,19.6,27.2,19.5,27.6c-4.2,0.1-20.2-0.1-20.2-0.1
		c-0.1,0-23.9-31.7-23.7-31.7c-0.1,6.2,0.1,31.4,0,31.7H97.6V254C98.6,253.9,131.9,254,131.9,254 M131,269.4c0,0,2,0.9,3.5,2.7
		c1.5,1.7,2.4,4.2,2.7,5.9l0.1,1.5c0,1.5-1.2,4.5-1.2,4.5c-0.7,1.3-1.2,2-2.1,2.9c-0.1,0.1-1.7,1.2-2,1.4c-2.9,1.6-7.5,1.6-7.6,1.6
		c0,0-4.2,0-8,0V269C121.9,269.1,130.3,268.9,131,269.4"/>
	<path class="st0" d="M358.7,276.3c-2.8,2.8-6.2,4.2-10.2,4.2c-4,0-7.4-1.4-10.1-4.2c-2.8-2.8-4.2-6.2-4.2-10.2
		c0-3.9,1.4-7.3,4.2-10.1c2.8-2.8,6.2-4.2,10.1-4.2c4,0,7.4,1.4,10.2,4.2c2.8,2.8,4.2,6.2,4.2,10.1
		C362.9,270.1,361.5,273.5,358.7,276.3 M339.9,257.6c-2.4,2.4-3.5,5.2-3.5,8.6c0,3.4,1.2,6.2,3.5,8.6c2.4,2.4,5.2,3.6,8.6,3.6
		c3.4,0,6.2-1.2,8.6-3.6c2.4-2.4,3.5-5.3,3.5-8.6c0-3.3-1.2-6.2-3.5-8.6c-2.4-2.4-5.2-3.6-8.6-3.6
		C345.1,254,342.3,255.2,339.9,257.6"/>
	<path class="st1" d="M358.6,256c-2.8-2.8-6.2-4.2-10.2-4.2c-3.9,0-7.3,1.4-10.1,4.2c-2.8,2.8-4.2,6.2-4.2,10.1
		c0,4,1.4,7.4,4.2,10.2c2.8,2.8,6.2,4.2,10.1,4.2c4,0,7.4-1.4,10.2-4.2c2.8-2.8,4.2-6.2,4.2-10.2C362.9,262.2,361.5,258.8,358.6,256
		 M357,274.8c-2.4,2.4-5.2,3.6-8.6,3.6c-3.4,0-6.2-1.2-8.6-3.6c-2.3-2.4-3.5-5.2-3.5-8.6c0-3.3,1.2-6.2,3.5-8.6
		c2.4-2.4,5.2-3.6,8.5-3.6c3.3,0,6.2,1.2,8.6,3.6c2.4,2.4,3.5,5.2,3.5,8.6C360.6,269.5,359.4,272.4,357,274.8"/>
	<path class="st0" d="M352,260.5c-0.8-0.3-2.2-0.5-4-0.5h-2.8v4.9h3c1.4,0,2.5-0.1,3.2-0.3c1.3-0.4,1.9-1.1,1.9-2.1
		C353.3,261.5,352.9,260.9,352,260.5 M348.6,258.1c2,0,3.5,0.2,4.5,0.6c1.7,0.7,2.5,2,2.5,4c0,1.4-0.5,2.4-1.6,3.1
		c-0.6,0.4-1.7,1-2.7,1.2c1,1.6,4.3,6.9,4.3,6.9h-2.7c0-0.1-4.5-7-4.6-7h-3v7h-2.5v-15.8H348.6z"/>
	<path class="st1" d="M351.3,267c1-0.2,2.1-0.8,2.7-1.2c1.1-0.7,1.6-1.7,1.6-3.1c0-2-0.8-3.3-2.5-4c-1-0.4-2.4-0.6-4.5-0.6h-5.7
		v15.8h2.5v-7h3c0.1,0.1,4.6,7,4.6,7h2.7C355.6,273.9,352.4,268.6,351.3,267 M348.2,264.9h-3V260h2.8c1.8,0,3.2,0.2,4,0.5
		c0.8,0.3,1.3,1,1.3,2c0,1-0.6,1.7-1.9,2.1C350.7,264.8,349.6,264.9,348.2,264.9"/>
	<polygon class="st1" points="271.2,328.3 251.8,328.3 304.1,253.5 323.5,253.5 	"/>
	<polygon class="st1" points="307.5,328.3 326.9,328.3 324.8,325.3 305.4,325.3 	"/>
	<polygon class="st1" points="256.6,256.9 276,256.9 273.7,253.6 254.3,253.6 	"/>
	<polygon class="st1" points="261.9,264.2 281.3,264.2 279,260.9 259.6,260.9 	"/>
	<polygon class="st1" points="267.4,271.9 286.7,271.9 284.4,268.6 265,268.6 	"/>
	<polygon class="st1" points="272.8,279.6 282.3,279.6 284.7,276.2 270.4,276.1 	"/>
	<polygon class="st1" points="302,320.5 321.4,320.5 319.3,317.5 299.8,317.5 	"/>
	<polygon class="st1" points="296.8,313.2 316.1,313.2 314,310.2 294.7,310.2 	"/>
	<polygon class="st1" points="291.4,305.7 310.8,305.7 308.7,302.7 293.5,302.7 	"/>
	<polygon class="st1" points="296.3,298.5 305.7,298.5 303.7,295.6 298.3,295.6 	"/>
	<polygon class="st1" points="277.6,286.3 279.4,283.6 275.7,283.6 	"/>
</g>
</svg>
