{
  "database": {
    "rules": "database.rules.json"
  },
  "hosting": {
    "public": "dist/griffin-project",
    "ignore": [
      "firebase.json",
      "**/.*",
      "**/node_modules/**"
    ],
    "rewrites": [
      {
        "source": "**",
        "destination": "/index.html"
      }
    ]
  },
  "remoteconfig": {
    "template": "remoteconfig.template.json"
  }
}