[
  {
    "id": 1,
    "content": "Become acquainted with the concepts of 'Blue Ocean Strategy'"
  },
  {
    "id": 2,
    "content": "Have the opportunity to start thinking differently"
  },
  {
    "id": 3,
    "content": "To identify and create uncontested market space that makes the competition irrelevant"
  },
  {
    "id": 4,
    "content": "Be equipped with proven value innovation tools of Blue Ocean Strategy"
  }
]

