[
  {
    "id": 1,
    "content": "Aqcuire a deep understanding of the Design Thinking Principles, process and tools"
  },
  {
    "id": 2,
    "content": "Understand the mind-set of a design thinker"
  },
  {
    "id": 3,
    "content": "Apply the Design Thinking framewrok as a structured process to solve problems, generate breakthrough ideas and co-create an improved customer experience journey"
  },
  {
    "id": 4,
    "content": "Improve personal effectiveness by becoming a more empathetic service provider"
  }
]

