[
  {
    "id": 1,
    "content": "Analyze and write based on their reader’s needs and the purpose of their message"
  },
  {
    "id": 2,
    "content": "Write in a way that holds the reader’s attention and achieves the purpose of their message"
  },
  {
    "id": 3,
    "content": "Use the correct writing steps when putting together important documents"
  },
  {
    "id": 4,
    "content": "Organize information appropriately in documents"
  },
  {
    "id": 5,
    "content": "Use different types of paragraphs in their writing"
  },
  {
    "id": 6,
    "content": "Persuade readers to take a certain course of action via writing"
  },
  {
    "id": 7,
    "content": "Present information in a reader-friendly manner"
  },
  {
    "id": 8,
    "content": "Write emails that are to the point yet effective"
  },
  {
    "id": 9,
    "content": "Create a comprehensive short report"
  }
]

