[
  {
    "id": 1,
    "detail": "Module 1 – What you need to know"
  },
  {
    "id": 2,
    "detail": "Module 2 – General Issues"
  },
  {
    "id": 3,
    "detail": "Module 3 – Workplace Discipline"
  },
  {
    "id": 4,
    "detail": "Module 4 – Handling Misconducts"
  },
  {
    "id": 5,
    "detail": "Module 5 – Domestic Inquiry (DI)"
  }
]
