[
  {
    "id": 1,
    "detail": "Module 1- Writing A Powerful Communication Tool"
  },
  {
    "id": 2,
    "detail": "Module 2- Pre-Writing Strategies for Success"
  },
  {
    "id": 3,
    "detail": "Module 3 - Winning Over Attention Part 1"
  },
  {
    "id": 4,
    "detail": "Module 4- Winning Over Attention Part 2"
  },
  {
    "id": 5,
    "detail": "Module 5 - Reader-Centric Emails"
  },
  {
    "id": 6,
    "detail": "Module 6 - Differences between Persuading & Informing"
  }
]
