[
  {
    "id": 1,
    "content": "Able to increase productivity and be more productive"
  },
  {
    "id": 2,
    "content": "Develop right Work Habits"
  },
  {
    "id": 3,
    "content": "Develop the right positive attitude towards your job"
  },
  {
    "id": 4,
    "content": "Set proprieties and plan your work more efficiently"
  },
  {
    "id": 5,
    "content": "Be able to manage Time efficiently"
  },
  {
    "id": 6,
    "content": "Identify your own Time Wasters and adopt strategies for eliminating them from their work patterns"
  }
]

