[
  {
    "id": 1,
    "detail": "Laying the Foundation"
  },
  {
    "id": 2,
    "detail": "Physical Mastery"
  },
  {
    "id": 3,
    "detail": "Knowing your true potential"
  },
  {
    "id": 4,
    "detail": "Getting energized- the awakening of the success in you"
  },
  {
    "id": 5,
    "detail": "The forces for and against you"
  },
  {
    "id": 6,
    "detail": "Developing Total Confidence"
  },
  {
    "id": 7,
    "detail": "Getting rid of your fears"
  },
  {
    "id": 8,
    "detail": "Clearing past negative emotions"
  },
  {
    "id": 9,
    "detail": "The power of the sub-conscious through NLP"
  },
  {
    "id": 10,
    "detail": "Journeying into your deep structure of belief"
  },
  {
    "id": 11,
    "detail": "Programming yourself for success with others"
  }
]
