[
  {
    "id": 1,
    "content": "List the techniques of telling stories"
  },
  {
    "id": 2,
    "content": "Use the mechanics of story-telling effectively in various situations"
  },
  {
    "id": 3,
    "content": "Influence and convince others by using stories"
  },
  {
    "id": 4,
    "content": "Relate stories to their messages in any communication impact fully"
  }
]

