[
  {
    "id": 1,
    "detail": "Refresher to HACCP Requirements"
  },
  {
    "id": 2,
    "detail": "PrP & 7 Principles of HACCP"
  },
  {
    "id": 3,
    "detail": "Hazards Analysis, HACCP Plan & Allergen Management"
  },
  {
    "id": 4,
    "detail": "Refresher to FSSC Requirements (con’t)"
  },
  {
    "id": 5,
    "detail": "ISO 22002-1 Requirement – Clause 11 to 17"
  },
  {
    "id": 6,
    "detail": "Food Defence , biovigilance and bioterrorism"
  },
  {
    "id": 7,
    "detail": "Refresher to HALAL Requirements"
  },
  {
    "id": 8,
    "detail": "Scope of MS 1500:2009"
  },
  {
    "id": 9,
    "detail": "Definition and Islamic Principles"
  },
  {
    "id": 10,
    "detail": "Requirements and Compliance Enforcement by JAKIM, JAIN, MAIN"
  },
  {
    "id": 11,
    "detail": "Halal Certification & Halal Logo"
  },
  {
    "id": 12,
    "detail": "HAS (Halal Assurance System) implementation"
  }
]
