[
  {
    "id": 1,
    "content": "Course covers the Halal awareness and best halal practices for manufacturers within the food industry"
  },
  {
    "id": 2,
    "content": "Modules cover the importance of MS1500 : 2009 , The workshop provides an intensive knowledge on the overall best halal practices for the manufacturers to produce high quality halal products for the ever demanding global halal food market"
  }
]

