[
  {
    "id": 1,
    "detail": "The formation of Responsible Business Alliance (RBA)"
  },
  {
    "id": 2,
    "detail": "The Framework of RBA Code of Conduct"
  },
  {
    "id": 3,
    "detail": "Compliance Framework"
  },
  {
    "id": 4,
    "detail": "The RBA Code of Conduct is made up of five components"
  },
  {
    "id": 5,
    "detail": "Risk and internal audit overview of RBA elements"
  },
  {
    "id": 6,
    "detail": "RBA audits requirements"
  }
]
