[
  {
    "id": 1,
    "content": "Apply safe working practices and understand the principles of preventive and first-line maintenance"
  },
  {
    "id": 2,
    "content": "Correctly diagnose a range of mechanical faults and plan a suitable course of action"
  },
  {
    "id": 3,
    "content": "Understand the principles of power transmission systems and recognize shafts, chains, and couplings"
  },
  {
    "id": 4,
    "content": "Understand their typical applications and recognize common defects in various types of bearings"
  },
  {
    "id": 5,
    "content": "Understand their typical applications and recognize different types of bolts and nuts"
  },
  {
    "id": 6,
    "content": "Understand their typical applications and recognize different types of gears"
  },
  {
    "id": 7,
    "content": "Recognize various types of conveyor systems and their main components drive belts and chains"
  }
]

