[
  {
    "id": 1,
    "detail": "Module 1: Overview of HTML and CSS"
  },
  {
    "id": 2,
    "detail": "Module 2: Creating and Styling HTML5 Pages"
  },
  {
    "id": 3,
    "detail": "Module 3: Introduction to JavaScript"
  },
  {
    "id": 4,
    "detail": "Module 4: Creating Forms to Collect Data and Validate User Input"
  },
  {
    "id": 5,
    "detail": "Module 5: Communicating with a Remote Data Source"
  },
  {
    "id": 6,
    "detail": "Module 6: Styling HTML5 by Using CSS3"
  },
  {
    "id": 7,
    "detail": "Module 7: Creating Objects and Methods by Using JavaScript"
  },
  {
    "id": 8,
    "detail": "Module 8: Creating Interactive Pages using HTML5 APIs"
  },
  {
    "id": 9,
    "detail": "Module 9: Adding Offline Support to Web Applications"
  },
  {
    "id": 10,
    "detail": "Module 10: Implementing an Adaptive User Interface"
  },
  {
    "id": 11,
    "detail": "Module 11: Creating Advanced Graphics"
  },
  {
    "id": 12,
    "detail": "Module 12: Animating the User Interface"
  },
  {
    "id": 13,
    "detail": "Module 13: Implementing Real-Time Communications by Using Web Sockets"
  },
  {
    "id": 14,
    "detail": "Module 14: Creating a Web Worker Process"
  }
]
