[
  {
    "id": 1,
    "content": "Explain how to use Visual Studio 2012 to create and run a Web application"
  },
  {
    "id": 2,
    "content": "Describe the new features of HTML5, and create and style HTML5 pages"
  },
  {
    "id": 3,
    "content": "Add interactivity to an HTML5 page by using JavaScript"
  },
  {
    "id": 4,
    "content": "Create HTML5 forms by using different input types, and validate user input by using HTML5 attributes and JavaScript code"
  },
  {
    "id": 5,
    "content": "Send and receive data to and from a remote data source by using XMLHTTP Request objects and jQuery AJAX operations"
  },
  {
    "id": 6,
    "content": "Style HTML5 pages by using CSS3"
  },
  {
    "id": 7,
    "content": "Create well-structured and easily maintainable JavaScript code"
  }
]

