[
  {
    "id": 1,
    "content": "Understand the latest edition of VDA and practice the requirement as stated in VDA 6.3"
  },
  {
    "id": 2,
    "content": "Perform the VDA 6.3 process audit"
  },
  {
    "id": 3,
    "content": "Implement the latest requirement as per the latest addition"
  }
]

