[
  {
    "id": 1,
    "detail": "Proof of the need"
  },
  {
    "id": 2,
    "detail": "Objectives"
  },
  {
    "id": 3,
    "detail": "Audit - flow / what / when"
  },
  {
    "id": 4,
    "detail": "Types of VDA"
  },
  {
    "id": 5,
    "detail": "Understanding the VDA 6.3 2nd edition June 2010 requirements"
  },
  {
    "id": 6,
    "detail": "VDA Process Audit"
  },
  {
    "id": 7,
    "detail": "VDA Audit Report"
  },
  {
    "id": 8,
    "detail": "VDA Audit questionnaire"
  },
  {
    "id": 9,
    "detail": "Auditing Category"
  },
  {
    "id": 10,
    "detail": "Auditing Simulation"
  }
]
